
****** PlanAhead v14.7 (64-bit)
  **** Build 321239 by xbuild on Fri Sep 27 19:24:36 MDT 2013
    ** Copyright 1986-1999, 2001-2013 Xilinx, Inc. All Rights Reserved.

INFO: [Common 17-78] Attempting to get a license: PlanAhead
INFO: [Common 17-290] Got license for PlanAhead
INFO: [Device 21-36] Loading parts and site information from /opt/Xilinx/14.7/ISE_DS/PlanAhead/data/parts/arch.xml
Parsing RTL primitives file [/opt/Xilinx/14.7/ISE_DS/PlanAhead/data/parts/xilinx/rtl/prims/rtl_prims.xml]
Finished parsing RTL primitives file [/opt/Xilinx/14.7/ISE_DS/PlanAhead/data/parts/xilinx/rtl/prims/rtl_prims.xml]
start_gui
source /home/ise/share/unoxt.exp27/zxdos_lx25/pa.fromNetlist.tcl
# create_project -name zxdos_lx25 -dir "/home/ise/share/unoxt.exp27/zxdos_lx25/planAhead_run_2" -part xc6slx25ftg256-2
# set_property design_mode GateLvl [get_property srcset [current_run -impl]]
# set_property edif_top_file "/home/ise/share/unoxt.exp27/zxdos_lx25/unoxt_top.ngc" [ get_property srcset [ current_run ] ]
# add_files -norecurse { {/home/ise/share/unoxt.exp27/zxdos_lx25} }
# set_property target_constrs_file "unoxt_pins.ucf" [current_fileset -constrset]
Adding file '/home/ise/share/unoxt.exp27/zxdos_lx25/unoxt_pins.ucf' to fileset 'constrs_1'
# add_files [list {unoxt_pins.ucf}] -fileset [get_property constrset [current_run]]
# link_design
Design is defaulting to srcset: sources_1
Design is defaulting to constrset: constrs_1
Design is defaulting to project part: xc6slx25ftg256-2
Release 14.7 - ngc2edif P.20131013 (lin64)
Copyright (c) 1995-2013 Xilinx, Inc.  All rights reserved.

Release 14.7 - ngc2edif P.20131013 (lin64)
Copyright (c) 1995-2013 Xilinx, Inc.  All rights reserved.
Reading design unoxt_top.ngc ...
WARNING:NetListWriters:298 - No output is written to unoxt_top.xncf, ignored.
Processing design ...
   Preping design's networks ...
   Preping design's macros ...
WARNING:NetListWriters:306 - Signal bus turboLed<6 : 0> on block unoxt_top is
   not reconstructed, because there are some missing bus signals.
WARNING:NetListWriters:306 - Signal bus
   la_maquina/el_teclado/funciones_especiales/user_fnt<12 : 0> on block
   unoxt_top is not reconstructed, because there are some missing bus signals.
WARNING:NetListWriters:306 - Signal bus
   la_maquina/enables_de_todos_los_relojes/divclk<15 : 0> on block unoxt_top is
   not reconstructed, because there are some missing bus signals.
WARNING:NetListWriters:306 - Signal bus
   la_maquina/bootrom_rom_y_ram/addr_port2<18 : 0> on block unoxt_top is not
   reconstructed, because there are some missing bus signals.
WARNING:NetListWriters:306 - Signal bus
   la_maquina/bootrom_rom_y_ram/divmmc_ctrl[7]_GND_312_o_mux_20_OUT<7 : 0> on
   block unoxt_top is not reconstructed, because there are some missing bus
   signals.
WARNING:NetListWriters:306 - Signal bus
   la_maquina/bootrom_rom_y_ram/divmmc_ctrl<7 : 0> on block unoxt_top is not
   reconstructed, because there are some missing bus signals.
WARNING:NetListWriters:306 - Signal bus
   la_maquina/el_z80_con_su_dma/el_z80/TheCPU/u0/Alternate_XY_State[1]_mux_244_O
   UT<2 : 0> on block unoxt_top is not reconstructed, because there are some
   missing bus signals.
WARNING:NetListWriters:306 - Signal bus
   la_maquina/el_z80_con_su_dma/el_z80/TheCPU/u0/Alternate_XY_State[1]_mux_241_O
   UT<2 : 0> on block unoxt_top is not reconstructed, because there are some
   missing bus signals.
WARNING:NetListWriters:306 - Signal bus
   la_maquina/el_z80_con_su_dma/el_z80/TheCPU/u0/F_Out<6 : 4> on block unoxt_top
   is not reconstructed, because there are some missing bus signals.
WARNING:NetListWriters:306 - Signal bus
   la_maquina/el_z80_con_su_dma/el_z80/TheCPU/u0/ALU_Op<2 : 0> on block
   unoxt_top is not reconstructed, because there are some missing bus signals.
WARNING:NetListWriters:306 - Signal bus
   la_maquina/el_z80_con_su_dma/el_z80/TheCPU/u0/mcode/_n2105<109 : 0> on block
   unoxt_top is not reconstructed, because there are some missing bus signals.
WARNING:NetListWriters:306 - Signal bus
   la_maquina/el_z80_con_su_dma/el_z80/TheCPU/u0/alu/Madd_n0128_cy<2 : 0> on
   block unoxt_top is not reconstructed, because there are some missing bus
   signals.
WARNING:NetListWriters:306 - Signal bus
   la_maquina/el_z80_con_su_dma/el_z80/TheCPU/u0/alu/Madd_GND_57_o_GND_57_o_add_
   21_OUT_cy<6 : 4> on block unoxt_top is not reconstructed, because there are
   some missing bus signals.
WARNING:NetListWriters:306 - Signal bus
   la_maquina/el_teclado/funciones_especiales/extended_user_fnt[12]_select_60_OU
   T<12 : 0> on block unoxt_top is not reconstructed, because there are some
   missing bus signals.
WARNING:NetListWriters:306 - Signal bus
   la_maquina/el_teclado/teclado_limpio/keybstat<255 : 0> on block unoxt_top is
   not reconstructed, because there are some missing bus signals.
WARNING:NetListWriters:306 - Signal bus
   la_maquina/los_joysticks/kbdcol_in[4]_kbdcol_in[4]_mux_47_OUT<4 : 0> on block
   unoxt_top is not reconstructed, because there are some missing bus signals.
WARNING:NetListWriters:306 - Signal bus
   la_maquina/control_scandoubler/scandblctrl[7]_din[7]_mux_30_OUT<4 : 0> on
   block unoxt_top is not reconstructed, because there are some missing bus
   signals.
  finished :Prep
Writing EDIF netlist file unoxt_top.edif ...
ngc2edif: Total memory usage is 128108 kilobytes

Parsing EDIF File [./planAhead_run_2/zxdos_lx25.data/cache/unoxt_top_ngc_8e76e6b7.edif]
Finished Parsing EDIF File [./planAhead_run_2/zxdos_lx25.data/cache/unoxt_top_ngc_8e76e6b7.edif]
INFO: [Netlist 29-17] Analyzing 20 Unisim elements for replacement
INFO: [Netlist 29-28] Unisim Transformation completed in 0 CPU seconds
WARNING: [Netlist 29-43] Netlist 'unoxt_top' is not ideal for floorplanning, since the cellview 'unoxt_top' defined in file 'unoxt_top.ngc' contains large number of primitives.  Please consider enabling hierarchy in synthesis if you want to do floorplanning.
Loading clock regions from /opt/Xilinx/14.7/ISE_DS/PlanAhead/data/parts/xilinx/spartan6/spartan6lx/xc6slx25/ClockRegion.xml
Loading clock buffers from /opt/Xilinx/14.7/ISE_DS/PlanAhead/data/parts/xilinx/spartan6/spartan6lx/xc6slx25/ClockBuffers.xml
Loading package pin functions from /opt/Xilinx/14.7/ISE_DS/PlanAhead/data/parts/xilinx/spartan6/PinFunctions.xml...
Loading package from /opt/Xilinx/14.7/ISE_DS/PlanAhead/data/parts/xilinx/spartan6/spartan6lx/xc6slx25/ftg256/Package.xml
Loading io standards from /opt/Xilinx/14.7/ISE_DS/PlanAhead/data/./parts/xilinx/spartan6/IOStandards.xml
Loading device configuration modes from /opt/Xilinx/14.7/ISE_DS/PlanAhead/data/parts/xilinx/spartan6/ConfigModes.xml
Loading list of drcs for the architecture : /opt/Xilinx/14.7/ISE_DS/PlanAhead/data/./parts/xilinx/spartan6/drc.xml
Parsing UCF File [/home/ise/share/unoxt.exp27/zxdos_lx25/unoxt_pins.ucf]
CRITICAL WARNING: [Constraints 18-11] Could not find net 'ram_data_io<8>' [/home/ise/share/unoxt.exp27/zxdos_lx25/unoxt_pins.ucf:69]
CRITICAL WARNING: [Constraints 18-10] Could not create constraint 'NODELAY' [/home/ise/share/unoxt.exp27/zxdos_lx25/unoxt_pins.ucf:69]
CRITICAL WARNING: [Constraints 18-11] Could not find net 'ram_data_io<9>' [/home/ise/share/unoxt.exp27/zxdos_lx25/unoxt_pins.ucf:70]
CRITICAL WARNING: [Constraints 18-10] Could not create constraint 'NODELAY' [/home/ise/share/unoxt.exp27/zxdos_lx25/unoxt_pins.ucf:70]
CRITICAL WARNING: [Constraints 18-11] Could not find net 'ram_data_io<10>' [/home/ise/share/unoxt.exp27/zxdos_lx25/unoxt_pins.ucf:71]
CRITICAL WARNING: [Constraints 18-10] Could not create constraint 'NODELAY' [/home/ise/share/unoxt.exp27/zxdos_lx25/unoxt_pins.ucf:71]
CRITICAL WARNING: [Constraints 18-11] Could not find net 'ram_data_io<11>' [/home/ise/share/unoxt.exp27/zxdos_lx25/unoxt_pins.ucf:72]
CRITICAL WARNING: [Constraints 18-10] Could not create constraint 'NODELAY' [/home/ise/share/unoxt.exp27/zxdos_lx25/unoxt_pins.ucf:72]
CRITICAL WARNING: [Constraints 18-11] Could not find net 'ram_data_io<12>' [/home/ise/share/unoxt.exp27/zxdos_lx25/unoxt_pins.ucf:73]
CRITICAL WARNING: [Constraints 18-10] Could not create constraint 'NODELAY' [/home/ise/share/unoxt.exp27/zxdos_lx25/unoxt_pins.ucf:73]
CRITICAL WARNING: [Constraints 18-11] Could not find net 'ram_data_io<13>' [/home/ise/share/unoxt.exp27/zxdos_lx25/unoxt_pins.ucf:74]
CRITICAL WARNING: [Constraints 18-10] Could not create constraint 'NODELAY' [/home/ise/share/unoxt.exp27/zxdos_lx25/unoxt_pins.ucf:74]
CRITICAL WARNING: [Constraints 18-11] Could not find net 'ram_data_io<14>' [/home/ise/share/unoxt.exp27/zxdos_lx25/unoxt_pins.ucf:75]
CRITICAL WARNING: [Constraints 18-10] Could not create constraint 'NODELAY' [/home/ise/share/unoxt.exp27/zxdos_lx25/unoxt_pins.ucf:75]
CRITICAL WARNING: [Constraints 18-11] Could not find net 'ram_data_io<15>' [/home/ise/share/unoxt.exp27/zxdos_lx25/unoxt_pins.ucf:76]
CRITICAL WARNING: [Constraints 18-10] Could not create constraint 'NODELAY' [/home/ise/share/unoxt.exp27/zxdos_lx25/unoxt_pins.ucf:76]
Finished Parsing UCF File [/home/ise/share/unoxt.exp27/zxdos_lx25/unoxt_pins.ucf]
INFO: [Designutils 20-20] Invalid constraints found, use command 'write_ucf -constraints invalid <file>' to save all the invalid constraints to a file
INFO: [Project 1-111] Unisim Transformation Summary:
  A total of 20 instances were transformed.
  IOBUF => IOBUF (OBUFT, IBUF): 12 instances
  RAM64X1D => RAM64X1D (RAMD64E, RAMD64E): 8 instances

Phase 0 | Netlist Checksum: d8e1c5e5
link_design: Time (s): cpu = 00:00:17 ; elapsed = 00:00:12 . Memory (MB): peak = 2911.727 ; gain = 213.234
exit
ERROR: [Common 17-39] 'stop_gui' failed due to earlier errors.
INFO: [Common 17-206] Exiting PlanAhead at Sat Nov  6 15:20:48 2021...
INFO: [Common 17-83] Releasing license: PlanAhead
